<?xml version="1.0" encoding="UTF-8" standalone="no"?>
<svg width="36px" height="24px" viewBox="0 0 36 24" version="1.1" xmlns="http://www.w3.org/2000/svg" xmlns:xlink="http://www.w3.org/1999/xlink">
    <!-- Generator: Sketch 41.2 (35397) - http://www.bohemiancoding.com/sketch -->
    <title>ic_menu_black_24px</title>
    <desc>Created with Sketch.</desc>
    <defs></defs>
    <g id="Page-1" stroke="none" stroke-width="1" fill="none" fill-rule="evenodd">
        <g id="ic_menu_black_24px" transform="translate(-6.000000, -12.000000)">
            <polygon id="Shape" points="0 0 48 0 48 48 0 48"></polygon>
            <path d="M6,36 L42,36 L42,32 L6,32 L6,36 L6,36 Z M6,26 L42,26 L42,22 L6,22 L6,26 L6,26 Z M6,12 L6,16 L42,16 L42,12 L6,12 L6,12 Z" id="Shape" fill="#4A4A4A"></path>
        </g>
    </g>
</svg>